<?xml version="1.0" encoding="utf-8"?>
<!-- Generator: Adobe Illustrator 19.1.0, SVG Export Plug-In . SVG Version: 6.00 Build 0)  -->
<svg version="1.1" id="Layer_1" xmlns="http://www.w3.org/2000/svg" xmlns:xlink="http://www.w3.org/1999/xlink" x="0px" y="0px"
	 viewBox="0 0 101 101" style="enable-background:new 0 0 101 101;" xml:space="preserve">
<path d="M71.3682,74.4201h-7.6562c-2.0488,0-3.3164-2.0557-3.3164-3.9609v-6.1416
	c0-1.874,1.2676-3.8975,3.3164-3.8975h7.6562c1.9951,0,4.0273,1.9668,4.0273,3.8975v6.1416
	C75.3955,72.4211,73.3633,74.4201,71.3682,74.4201z M63.7119,61.4201c-1.3857,0-2.3164,1.498-2.3164,2.8975v6.1416
	c0,1.4297,0.9307,2.9609,2.3164,2.9609h7.6562c1.415,0,3.0273-1.5771,3.0273-2.9609v-6.1416c0-1.3809-1.584-2.8975-3.0273-2.8975
	H63.7119z M53.7588,74.4201h-7.6562c-1.9053,0-3.707-1.9248-3.707-3.9609v-6.1416c0-2.0029,1.8018-3.8975,3.707-3.8975h7.6562
	c1.9033,0,3.6367,1.8574,3.6367,3.8975v6.1416C57.3955,72.4953,55.6279,74.4201,53.7588,74.4201z M46.1025,61.4201
	c-1.3662,0-2.707,1.4355-2.707,2.8975v6.1416c0,1.4668,1.3662,2.9609,2.707,2.9609h7.6562c1.3311,0,2.6367-1.4668,2.6367-2.9609
	v-6.1416c0-1.4893-1.2812-2.8975-2.6367-2.8975H46.1025z M36.1504,74.4201h-7.6562c-2.0127,0-3.0986-2.041-3.0986-3.9609v-6.1416
	c0-1.8897,1.0859-3.8975,3.0986-3.8975h7.6562c2.0312,0,3.2451,1.9814,3.2451,3.8975v6.1416
	C39.3955,72.3644,38.1553,74.4201,36.1504,74.4201z M28.4941,61.4201c-1.3779,0-2.0986,1.458-2.0986,2.8975v6.1416
	c0,1.4355,0.7354,2.9609,2.0986,2.9609h7.6562c1.3867,0,2.2451-1.5371,2.2451-2.9609v-6.1416c0-1.3936-0.8584-2.8975-2.2451-2.8975
	H28.4941z M59.1182,42.4201h-18.375c-2.1016,0-4.3477-0.7002-4.3477-2.667v-9.2129c0-1.9248,2.3164-4.1201,4.3477-4.1201h18.375
	c1.96,0,3.2773,2.1309,3.2773,4.1201v9.2129C62.3955,42.4201,59.9287,42.4201,59.1182,42.4201z M40.7432,27.4201
	c-1.4707,0-3.3477,1.75-3.3477,3.1201v9.2129c0,1.5869,2.7891,1.667,3.3477,1.667h18.375c1.8965,0,2.2773-0.6377,2.2773-1.667
	v-9.2129c0-1.4756-0.9355-3.1201-2.2773-3.1201H40.7432z M68.8955,58.4201h-3l-0.5-0.5v-4.3506c0-0.2471-0.043-0.585-0.2461-0.79
	c-0.249-0.248-0.457-0.3594-0.6719-0.3594h-13.082v5.5l-0.5,0.5h-3l-0.5-0.5v-5.5H35.3848c-0.2295,0-0.4678,0.1211-0.709,0.3613
	c-0.1748,0.1758-0.2803,0.4707-0.2803,0.7881v4.3506l-0.5,0.5h-4l-0.5-0.5v-4.3506c0-1.3975,1.0547-2.7471,1.9395-3.6328
	c1.0361-1.042,2.8262-1.5166,4.0498-1.5166h12.0107v-2.5l0.5-0.5h3l0.5,0.5v2.5h13.082c1.3096,0,2.5254,0.5244,3.5146,1.5176
	c0.9053,0.9062,1.4033,2.1963,1.4033,3.6318v4.3506L68.8955,58.4201z M66.3955,57.4201h2v-3.8506
	c0-1.1689-0.3945-2.208-1.1113-2.9258l-0.001-0.001c-0.7969-0.7998-1.7676-1.2227-2.8057-1.2227h-13.582l-0.5-0.5v-2.5h-2v2.5
	l-0.5,0.5H35.3848c-1.0303,0-2.5518,0.4287-3.3418,1.2227c-1.0625,1.0635-1.6475,2.1025-1.6475,2.9268v3.8506h3v-3.8506
	c0-0.585,0.209-1.1299,0.5732-1.4951c0.4297-0.4287,0.9189-0.6543,1.416-0.6543h12.5107l0.5,0.5v5.5h2v-5.5l0.5-0.5h13.582
	c0.4873,0,0.9385,0.2139,1.3789,0.6523c0.3535,0.3555,0.5391,0.873,0.5391,1.4971V57.4201z M50.5,100.0002
	c-27.2939,0-49.5-22.2061-49.5-49.5s22.2061-49.5,49.5-49.5s49.5,22.2061,49.5,49.5S77.7939,100.0002,50.5,100.0002z M50.5,2.0001
	c-26.7432,0-48.5,21.7568-48.5,48.5s21.7568,48.5,48.5,48.5S99,77.2433,99,50.5001S77.2432,2.0001,50.5,2.0001z"/>
</svg>
