<?xml version="1.0" encoding="utf-8"?>
<!-- Generator: Adobe Illustrator 19.1.0, SVG Export Plug-In . SVG Version: 6.00 Build 0)  -->
<svg version="1.1" id="Layer_1" xmlns="http://www.w3.org/2000/svg" xmlns:xlink="http://www.w3.org/1999/xlink" x="0px" y="0px"
	 viewBox="0 0 89.25 89.25" style="enable-background:new 0 0 89.25 89.25;" xml:space="preserve">
<path d="M44.6251,88.3676c-24.1196,0-43.7427-19.623-43.7427-43.7422
	c0-24.1201,19.623-43.7432,43.7427-43.7432s43.7422,19.623,43.7422,43.7432C88.3673,68.7446,68.7447,88.3676,44.6251,88.3676z
	 M44.6251,1.8823c-23.5684,0-42.7427,19.1748-42.7427,42.7432s19.1743,42.7422,42.7427,42.7422s42.7422-19.1738,42.7422-42.7422
	S68.1934,1.8823,44.6251,1.8823z M44.6275,72.2114l-0.1626-0.0557c-14.5308-4.9922-24.2935-18.6699-24.2935-34.0361
	c0-5.0273,1.0161-9.8877,3.021-14.4473l0.1802-0.4102l0.4277,0.1348c2.2759,0.7168,4.6504,1.0801,7.0581,1.0801
	c4.6074,0,9.269-1.5664,13.4814-4.5312l0.2881-0.2021l0.2876,0.2031c2.9297,2.0664,7.6475,4.5303,13.4858,4.5303
	c2.4004,0,4.772-0.3633,7.0483-1.0801l0.4282-0.1348l0.1802,0.4102c2.0039,4.5684,3.02,9.4287,3.02,14.4473
	c0,15.3672-9.7607,29.0449-24.2881,34.0361L44.6275,72.2114z M23.9317,24.4819c-1.832,4.3135-2.7603,8.8994-2.7603,13.6377
	c0,14.8818,9.4189,28.1348,23.4561,33.0342c14.0337-4.8984,23.4507-18.1514,23.4507-33.0342c0-4.7305-0.9282-9.3164-2.7603-13.6377
	c-2.2407,0.6602-4.5654,0.9951-6.9165,0.9951c-4.7227,0-9.4785-1.5596-13.7744-4.5127c-4.3062,2.9531-9.0591,4.5127-13.7686,4.5127
	C28.5006,25.477,26.1729,25.142,23.9317,24.4819z M44.6275,66.7436l-0.1899-0.0771c-11.6221-4.7666-19.1318-15.9717-19.1318-28.5469
	c0-2.8682,0.3887-5.6973,1.1558-8.4082l0.1182-0.4189l0.4307,0.0596c1.251,0.1719,2.5454,0.2588,3.8481,0.2588
	c4.5659,0,9.2432-1.2578,13.5264-3.6377l0.2427-0.1348l0.2432,0.1357c4.2783,2.3789,8.957,3.6367,13.5308,3.6367
	c1.3003,0,2.5918-0.0869,3.8384-0.2588l0.4312-0.0596l0.1182,0.4189c0.7666,2.7129,1.1553,5.542,1.1553,8.4082
	c0,12.5742-7.5078,23.7803-19.127,28.5469L44.6275,66.7436z M27.3092,30.3989c-0.666,2.4961-1.0034,5.0908-1.0034,7.7207
	c0,12.0996,7.1841,22.8877,18.3218,27.543c11.1348-4.6562,18.3169-15.4443,18.3169-27.543c0-2.6279-0.3374-5.2236-1.0034-7.7207
	c-1.1558,0.1406-2.3442,0.2119-3.5396,0.2119c-4.6567,0-9.4136-1.2539-13.7739-3.6299c-4.3652,2.376-9.1201,3.6299-13.769,3.6299
	C29.6607,30.6108,28.4693,30.5395,27.3092,30.3989z M44.6275,56.7866c-6.8804,0-12.4775-5.5967-12.4775-12.4756
	s5.5972-12.4756,12.4775-12.4756c2.8247,0,5.4912,0.9238,7.7114,2.6719l0.3975,0.3125l-8.2783,10.2686l-3.5151-3.9678
	l-3.0884,2.7412l5.1284,5.7979c0.3965,0.4434,0.9634,0.6982,1.5532,0.6982c0.6567-0.0156,1.2285-0.2969,1.6104-0.7695
	l9.2944-11.5439l0.3486,0.6963c0.8701,1.7373,1.311,3.6123,1.311,5.5703C57.1007,51.1899,51.5055,56.7866,44.6275,56.7866z
	 M44.6275,32.8354c-6.3286,0-11.4775,5.1475-11.4775,11.4756s5.1489,11.4756,11.4775,11.4756
	c6.3262,0,11.4731-5.1475,11.4731-11.4756c0-1.5342-0.2939-3.0117-0.8755-4.4033l-8.3003,10.3076
	c-0.5664,0.7031-1.4121,1.1191-2.3203,1.1426c0,0,0,0-0.0005,0c-0.9424,0-1.7808-0.377-2.3682-1.0342l-5.7915-6.5479l4.5835-4.0674
	l3.394,3.8311l6.8945-8.5508C49.358,33.5776,47.0562,32.8354,44.6275,32.8354z"/>
</svg>
